\relax 
\providecommand\hyper@newdestlabel[2]{}
\providecommand*\new@tpo@label[2]{}
\providecommand\HyperFirstAtBeginDocument{\AtBeginDocument}
\HyperFirstAtBeginDocument{\ifx\hyper@anchor\@undefined
\global\let\oldcontentsline\contentsline
\gdef\contentsline#1#2#3#4{\oldcontentsline{#1}{#2}{#3}}
\global\let\oldnewlabel\newlabel
\gdef\newlabel#1#2{\newlabelxx{#1}#2}
\gdef\newlabelxx#1#2#3#4#5#6{\oldnewlabel{#1}{{#2}{#3}}}
\AtEndDocument{\ifx\hyper@anchor\@undefined
\let\contentsline\oldcontentsline
\let\newlabel\oldnewlabel
\fi}
\fi}
\global\let\hyper@last\relax 
\gdef\HyperFirstAtBeginDocument#1{#1}
\providecommand*\HyPL@Entry[1]{}
\catcode `"\active 
\HyPL@Entry{0<</S/D>>}
\selectlanguage *{czech}
\@writefile{toc}{\selectlanguage *{czech}}
\@writefile{lof}{\selectlanguage *{czech}}
\@writefile{lot}{\selectlanguage *{czech}}
\@writefile{toc}{\contentsline {chapter}{\nonumberline Úvod}{13}{chapter*.2}\protected@file@percent }
\@writefile{lof}{\addvspace {10\p@ }}
\@writefile{lot}{\addvspace {10\p@ }}
\@writefile{lol}{\addvspace {10\p@ }}
\citation{singh}
\citation{singh}
\citation{singh}
\citation{singh}
\citation{singh}
\@writefile{toc}{\contentsline {chapter}{\numberline {1}Kryptologie}{15}{chapter.1}\protected@file@percent }
\@writefile{lof}{\addvspace {10\p@ }}
\@writefile{lot}{\addvspace {10\p@ }}
\@writefile{lol}{\addvspace {10\p@ }}
\@writefile{toc}{\contentsline {subsubsection}{\nonumberline Historie}{15}{section*.3}\protected@file@percent }
\citation{modern}
\citation{modern}
\citation{modern}
\@writefile{toc}{\contentsline {section}{\numberline {1.1}Matematický základ}{16}{section.1.1}\protected@file@percent }
\@writefile{toc}{\contentsline {subsubsection}{\nonumberline Modulární aritmetika}{16}{section*.4}\protected@file@percent }
\@writefile{toc}{\contentsline {subsubsection}{\nonumberline Operace modulo --- zbytek po dělení}{16}{section*.5}\protected@file@percent }
\citation{modern}
\@writefile{toc}{\contentsline {subsubsection}{\nonumberline Rotování bitů}{17}{section*.6}\protected@file@percent }
\@writefile{toc}{\contentsline {subsubsection}{\nonumberline Operace XOR}{17}{section*.7}\protected@file@percent }
\@writefile{toc}{\contentsline {subsubsection}{\nonumberline Permutace}{17}{section*.8}\protected@file@percent }
\@writefile{toc}{\contentsline {chapter}{\numberline {2}Symetrické blokové šifry}{19}{chapter.2}\protected@file@percent }
\@writefile{lof}{\addvspace {10\p@ }}
\@writefile{lot}{\addvspace {10\p@ }}
\@writefile{lol}{\addvspace {10\p@ }}
\@writefile{lof}{\contentsline {figure}{\numberline {2.1}{\ignorespaces Princip symetrické kryptografie}}{19}{figure.2.1}\protected@file@percent }
\@writefile{lof}{\contentsline {figure}{\numberline {2.2}{\ignorespaces Ukázka Feistelovy sítě}}{20}{figure.2.2}\protected@file@percent }
\citation{des}
\citation{des}
\citation{des}
\@writefile{toc}{\contentsline {section}{\numberline {2.1}DES}{21}{section.2.1}\protected@file@percent }
\@writefile{toc}{\contentsline {subsection}{\nonumberline Vlastnosti}{21}{section*.9}\protected@file@percent }
\@writefile{toc}{\contentsline {subsection}{\nonumberline Rozvrhnutí klíčů}{21}{section*.10}\protected@file@percent }
\citation{des}
\citation{des}
\@writefile{lof}{\contentsline {figure}{\numberline {2.3}{\ignorespaces DES --- rozvrhnutí klíčů \cite  {des}}}{22}{figure.2.3}\protected@file@percent }
\@writefile{toc}{\contentsline {subsection}{\nonumberline Šifrování}{22}{section*.11}\protected@file@percent }
\citation{des}
\citation{des}
\@writefile{lof}{\contentsline {figure}{\numberline {2.4}{\ignorespaces DES --- šifrování \cite  {des}}}{23}{figure.2.4}\protected@file@percent }
\@writefile{toc}{\contentsline {subsection}{\nonumberline Dešifrování}{23}{section*.12}\protected@file@percent }
\citation{rc5}
\citation{rc5}
\citation{rc5}
\@writefile{toc}{\contentsline {section}{\numberline {2.2}RC5}{24}{section.2.2}\protected@file@percent }
\@writefile{toc}{\contentsline {subsection}{\nonumberline Vlastnosti}{24}{section*.13}\protected@file@percent }
\@writefile{toc}{\contentsline {subsection}{\nonumberline Rozvrhnutí klíčů}{24}{section*.14}\protected@file@percent }
\citation{rc5}
\citation{rc5}
\@writefile{toc}{\contentsline {subsection}{\nonumberline Šifrování}{25}{section*.15}\protected@file@percent }
\@writefile{lof}{\contentsline {figure}{\numberline {2.5}{\ignorespaces RC5 --- šifrování/dešifrování \cite  {rc5}}}{26}{figure.2.5}\protected@file@percent }
\@writefile{toc}{\contentsline {subsection}{\nonumberline Dešifrování}{26}{section*.16}\protected@file@percent }
\citation{blowfish}
\citation{blowfish}
\citation{blowfish}
\@writefile{toc}{\contentsline {section}{\numberline {2.3}Blowfish}{27}{section.2.3}\protected@file@percent }
\@writefile{toc}{\contentsline {subsection}{\nonumberline Vlastnosti}{27}{section*.17}\protected@file@percent }
\@writefile{toc}{\contentsline {subsection}{\nonumberline Rozvrhnutí klíčů}{27}{section*.18}\protected@file@percent }
\@writefile{toc}{\contentsline {subsection}{\nonumberline Šifrování}{27}{section*.19}\protected@file@percent }
\citation{blowfish}
\citation{blowfish}
\@writefile{lof}{\contentsline {figure}{\numberline {2.6}{\ignorespaces Blowfish --- šifrování \cite  {blowfish}}}{28}{figure.2.6}\protected@file@percent }
\@writefile{toc}{\contentsline {subsection}{\nonumberline Dešifrování}{28}{section*.20}\protected@file@percent }
\citation{idea}
\citation{idea}
\citation{idea}
\@writefile{toc}{\contentsline {section}{\numberline {2.4}IDEA}{29}{section.2.4}\protected@file@percent }
\@writefile{toc}{\contentsline {subsection}{\nonumberline Vlastnosti}{29}{section*.21}\protected@file@percent }
\@writefile{toc}{\contentsline {subsection}{\nonumberline Rozvrhnutí klíčů}{29}{section*.22}\protected@file@percent }
\@writefile{toc}{\contentsline {subsection}{\nonumberline Šifrování}{29}{section*.23}\protected@file@percent }
\citation{idea}
\citation{idea}
\@writefile{lof}{\contentsline {figure}{\numberline {2.7}{\ignorespaces IDEA --- šifrování \cite  {idea}}}{30}{figure.2.7}\protected@file@percent }
\@writefile{toc}{\contentsline {subsection}{\nonumberline Dešifrování}{31}{section*.24}\protected@file@percent }
\citation{aes}
\citation{aes}
\citation{aes}
\citation{aes}
\citation{aes}
\citation{aes}
\citation{aes}
\@writefile{toc}{\contentsline {section}{\numberline {2.5}AES}{32}{section.2.5}\protected@file@percent }
\@writefile{toc}{\contentsline {subsection}{\nonumberline Vlastnosti}{32}{section*.25}\protected@file@percent }
\@writefile{toc}{\contentsline {subsubsection}{\nonumberline SubByte operace}{32}{section*.26}\protected@file@percent }
\@writefile{lof}{\contentsline {figure}{\numberline {2.8}{\ignorespaces ukázka SubByte operace \cite  {aes}}}{32}{figure.2.8}\protected@file@percent }
\@writefile{toc}{\contentsline {subsubsection}{\nonumberline ShiftRows operace}{32}{section*.27}\protected@file@percent }
\citation{aes}
\citation{aes}
\citation{aes}
\citation{aes}
\@writefile{lof}{\contentsline {figure}{\numberline {2.9}{\ignorespaces ukázka ShiftRows operace \cite  {aes}}}{33}{figure.2.9}\protected@file@percent }
\@writefile{toc}{\contentsline {subsubsection}{\nonumberline MixColumns operace}{33}{section*.28}\protected@file@percent }
\@writefile{lof}{\contentsline {figure}{\numberline {2.10}{\ignorespaces ukázka MixColumns operace \cite  {aes}}}{33}{figure.2.10}\protected@file@percent }
\@writefile{toc}{\contentsline {subsubsection}{\nonumberline AddRoundKey operace}{33}{section*.29}\protected@file@percent }
\@writefile{lof}{\contentsline {figure}{\numberline {2.11}{\ignorespaces ukázka AddRoundKey operace \cite  {aes}}}{34}{figure.2.11}\protected@file@percent }
\@writefile{toc}{\contentsline {subsection}{\nonumberline Rozvrhnutí klíčů}{34}{section*.30}\protected@file@percent }
\@writefile{toc}{\contentsline {subsection}{\nonumberline Šifrování}{35}{section*.31}\protected@file@percent }
\@writefile{toc}{\contentsline {subsection}{\nonumberline Dešifrování}{35}{section*.32}\protected@file@percent }
\@writefile{lof}{\contentsline {figure}{\numberline {2.12}{\ignorespaces AES --- šifrování/dešifrování}}{35}{figure.2.12}\protected@file@percent }
\citation{modesWiki}
\citation{modesWiki}
\citation{modesWiki}
\citation{modesNIST}
\@writefile{toc}{\contentsline {chapter}{\numberline {3}Režimy blokových šifer}{37}{chapter.3}\protected@file@percent }
\@writefile{lof}{\addvspace {10\p@ }}
\@writefile{lot}{\addvspace {10\p@ }}
\@writefile{lol}{\addvspace {10\p@ }}
\@writefile{toc}{\contentsline {section}{\numberline {3.1}ECB}{37}{section.3.1}\protected@file@percent }
\@writefile{lof}{\contentsline {figure}{\numberline {3.1}{\ignorespaces Režim ECB --- šifrování}}{37}{figure.3.1}\protected@file@percent }
\citation{modesWiki}
\citation{modesNIST}
\citation{modesWiki}
\citation{modesWiki}
\citation{modesNIST}
\@writefile{lof}{\contentsline {figure}{\numberline {3.2}{\ignorespaces Režim ECB --- dešifrování}}{38}{figure.3.2}\protected@file@percent }
\@writefile{toc}{\contentsline {section}{\numberline {3.2}CBC}{38}{section.3.2}\protected@file@percent }
\@writefile{lof}{\contentsline {figure}{\numberline {3.3}{\ignorespaces Režim CBC --- šifrování}}{38}{figure.3.3}\protected@file@percent }
\citation{modesWiki}
\citation{modesWiki}
\citation{modesNIST}
\citation{modesWiki}
\citation{modesNIST}
\citation{modesWiki}
\citation{modesNIST}
\@writefile{lof}{\contentsline {figure}{\numberline {3.4}{\ignorespaces Režim CBC --- dešifrování}}{39}{figure.3.4}\protected@file@percent }
\@writefile{toc}{\contentsline {subsubsection}{\nonumberline Inicializační vektor}{39}{section*.33}\protected@file@percent }
\@writefile{toc}{\contentsline {section}{\numberline {3.3}CFB}{39}{section.3.3}\protected@file@percent }
\citation{modesWiki}
\citation{modesNIST}
\citation{modesWiki}
\citation{modesWiki}
\citation{modesNIST}
\@writefile{lof}{\contentsline {figure}{\numberline {3.5}{\ignorespaces Režim CFB --- šifrování}}{40}{figure.3.5}\protected@file@percent }
\@writefile{lof}{\contentsline {figure}{\numberline {3.6}{\ignorespaces Režim CFB --- dešifrování}}{40}{figure.3.6}\protected@file@percent }
\@writefile{toc}{\contentsline {section}{\numberline {3.4}OFB}{40}{section.3.4}\protected@file@percent }
\citation{modesWiki}
\citation{modesNIST}
\citation{modesWiki}
\citation{modesNIST}
\citation{modesWiki}
\citation{modesNIST}
\@writefile{lof}{\contentsline {figure}{\numberline {3.7}{\ignorespaces Režim OFB --- šifrování}}{41}{figure.3.7}\protected@file@percent }
\@writefile{lof}{\contentsline {figure}{\numberline {3.8}{\ignorespaces Režim OFB --- dešifrování}}{41}{figure.3.8}\protected@file@percent }
\@writefile{toc}{\contentsline {section}{\numberline {3.5}CTR}{41}{section.3.5}\protected@file@percent }
\citation{modesWiki}
\citation{modesNIST}
\citation{modesWiki}
\citation{modesWiki}
\citation{modesNIST}
\@writefile{lof}{\contentsline {figure}{\numberline {3.9}{\ignorespaces Režim CTR --- šifrování}}{42}{figure.3.9}\protected@file@percent }
\@writefile{lof}{\contentsline {figure}{\numberline {3.10}{\ignorespaces Režim CTR --- dešifrování}}{42}{figure.3.10}\protected@file@percent }
\citation{modesWiki}
\@writefile{toc}{\contentsline {section}{\numberline {3.6}PCBC}{43}{section.3.6}\protected@file@percent }
\@writefile{lof}{\contentsline {figure}{\numberline {3.11}{\ignorespaces Režim PCBC --- šifrování}}{43}{figure.3.11}\protected@file@percent }
\@writefile{lof}{\contentsline {figure}{\numberline {3.12}{\ignorespaces Režim PCBC --- dešifrování}}{43}{figure.3.12}\protected@file@percent }
\@writefile{toc}{\contentsline {chapter}{\numberline {4}Aplikace}{45}{chapter.4}\protected@file@percent }
\@writefile{lof}{\addvspace {10\p@ }}
\@writefile{lot}{\addvspace {10\p@ }}
\@writefile{lol}{\addvspace {10\p@ }}
\@writefile{toc}{\contentsline {section}{\numberline {4.1}Návrh}{45}{section.4.1}\protected@file@percent }
\@writefile{lof}{\contentsline {figure}{\numberline {4.1}{\ignorespaces Původní návrh architektury aplikace}}{45}{figure.4.1}\protected@file@percent }
\@writefile{toc}{\contentsline {section}{\numberline {4.2}Implementace}{46}{section.4.2}\protected@file@percent }
\@writefile{lof}{\contentsline {figure}{\numberline {4.2}{\ignorespaces Aktuální architektura aplikace}}{46}{figure.4.2}\protected@file@percent }
\@writefile{toc}{\contentsline {subsection}{\nonumberline Frontend}{47}{section*.34}\protected@file@percent }
\@writefile{toc}{\contentsline {subsection}{\nonumberline Backend}{47}{section*.35}\protected@file@percent }
\@writefile{toc}{\contentsline {subsubsection}{\nonumberline Třída globálních funkcí}{48}{section*.36}\protected@file@percent }
\@writefile{toc}{\contentsline {subsubsection}{\nonumberline Třídy šifer}{49}{section*.37}\protected@file@percent }
\@writefile{toc}{\contentsline {subsubsection}{\nonumberline Třídy režimů}{50}{section*.38}\protected@file@percent }
\@writefile{toc}{\contentsline {subsubsection}{\nonumberline Zpracování obrázků}{50}{section*.39}\protected@file@percent }
\@writefile{toc}{\contentsline {chapter}{\numberline {5}Simulace šíření chyb}{53}{chapter.5}\protected@file@percent }
\@writefile{lof}{\addvspace {10\p@ }}
\@writefile{lot}{\addvspace {10\p@ }}
\@writefile{lol}{\addvspace {10\p@ }}
\@writefile{toc}{\contentsline {subsection}{\nonumberline Použitá data}{53}{section*.40}\protected@file@percent }
\@writefile{lof}{\contentsline {figure}{\numberline {5.1}{\ignorespaces Otevřený text a šifrovací klíč}}{53}{figure.5.1}\protected@file@percent }
\@writefile{lof}{\contentsline {figure}{\numberline {5.2}{\ignorespaces Zašifrovaný text}}{53}{figure.5.2}\protected@file@percent }
\@writefile{lof}{\contentsline {figure}{\numberline {5.3}{\ignorespaces Použité obrázky}}{54}{figure.5.3}\protected@file@percent }
\@writefile{lof}{\contentsline {figure}{\numberline {5.4}{\ignorespaces Šifrování pomocí režimu ECB}}{54}{figure.5.4}\protected@file@percent }
\@writefile{lof}{\contentsline {figure}{\numberline {5.5}{\ignorespaces Šifrování pomocí režimu CTR}}{54}{figure.5.5}\protected@file@percent }
\@writefile{lof}{\contentsline {figure}{\numberline {5.6}{\ignorespaces Šifrování pomocí ostatních režimů}}{55}{figure.5.6}\protected@file@percent }
\@writefile{toc}{\contentsline {subsection}{\nonumberline Popis simulace v textu}{55}{section*.41}\protected@file@percent }
\@writefile{toc}{\contentsline {subsubsection}{\nonumberline Umělé přidání chyby}{55}{section*.42}\protected@file@percent }
\@writefile{toc}{\contentsline {subsection}{\nonumberline Popis simulace v obrázku}{56}{section*.43}\protected@file@percent }
\@writefile{toc}{\contentsline {subsubsection}{\nonumberline Umělé přidání chyby}{56}{section*.44}\protected@file@percent }
\@writefile{lof}{\contentsline {figure}{\numberline {5.7}{\ignorespaces Obrázky s chybou po kroku}}{56}{figure.5.7}\protected@file@percent }
\@writefile{lof}{\contentsline {figure}{\numberline {5.8}{\ignorespaces Obrázky s chybou v rozsahu}}{56}{figure.5.8}\protected@file@percent }
\@writefile{toc}{\contentsline {subsection}{\nonumberline Celková chyba}{57}{section*.45}\protected@file@percent }
\@writefile{toc}{\contentsline {subsubsection}{\nonumberline Text}{57}{section*.46}\protected@file@percent }
\@writefile{toc}{\contentsline {subsubsection}{\nonumberline Obrázek}{57}{section*.47}\protected@file@percent }
\@writefile{toc}{\contentsline {chapter}{\numberline {6}Zhodnocení výsledků}{59}{chapter.6}\protected@file@percent }
\@writefile{lof}{\addvspace {10\p@ }}
\@writefile{lot}{\addvspace {10\p@ }}
\@writefile{lol}{\addvspace {10\p@ }}
\@writefile{toc}{\contentsline {subsection}{\nonumberline Hodnocení}{61}{section*.48}\protected@file@percent }
\@writefile{toc}{\contentsline {chapter}{\nonumberline Závěr}{63}{chapter*.49}\protected@file@percent }
\@writefile{lof}{\addvspace {10\p@ }}
\@writefile{lot}{\addvspace {10\p@ }}
\@writefile{lol}{\addvspace {10\p@ }}
\citation{singh}
\@writefile{toc}{\contentsline {chapter}{\nonumberline Slovník pojmů}{65}{chapter*.50}\protected@file@percent }
\@writefile{lof}{\addvspace {10\p@ }}
\@writefile{lot}{\addvspace {10\p@ }}
\@writefile{lol}{\addvspace {10\p@ }}
\bibcite{singh}{1}
\bibcite{modern}{2}
\bibcite{des}{3}
\bibcite{rc5}{4}
\bibcite{blowfish}{5}
\bibcite{idea}{6}
\bibcite{aesKey}{7}
\bibcite{aes}{8}
\bibcite{modesWiki}{9}
\bibcite{modesNIST}{10}
\@writefile{toc}{\contentsline {chapter}{\nonumberline Seznam použité literatury}{67}{chapter*.51}\protected@file@percent }
\@writefile{lof}{\addvspace {10\p@ }}
\@writefile{lot}{\addvspace {10\p@ }}
\@writefile{lol}{\addvspace {10\p@ }}
\citation{des}
\citation{des}
\citation{rc5}
\citation{blowfish}
\citation{idea}
\citation{aes}
\citation{aes}
\citation{aes}
\citation{aes}
\@writefile{toc}{\contentsline {chapter}{\numberline {A}Obsah přiloženého CD}{71}{appendix.A}\protected@file@percent }
\@writefile{lof}{\addvspace {10\p@ }}
\@writefile{lot}{\addvspace {10\p@ }}
\@writefile{lol}{\addvspace {10\p@ }}
\global\csname @altsecnumformattrue\endcsname
\global\@namedef{scr@dte@chapter@lastmaxnumwidth}{16.16393pt}
\global\@namedef{scr@dte@section@lastmaxnumwidth}{21.23993pt}
\global\@namedef{scr@dte@figure@lastmaxnumwidth}{26.81993pt}
